Tidybiology
…
Extract or create new objects

You can call a single part of the data frame

proteins$mass

## # A tibble: 12,105 x 1
##      mass
##     <dbl>
##  1  65202
##  2 163291
##  3 161107
##  4  38754
##  5  40499
##  6  59574
##  7  75144
##  8  45734
##  9  47352
## 10 103885
## # … with 12,095 more rows
…
